…
# Use the output for drawing the stacked barplots
# Next let's focus on clinical significance

clin_type = clinvar_GRCh38 %>% 
group_by(ClinicalSignificance) %>%
summarize(count = n())

clin_type
# A tibble: 92 × 2
   ClinicalSignificance                        count
   <chr>                                       <int>
 1 -                                               1
 2 Affects                                       139
 3 Affects; risk factor                            1
 4 Benign                                     206064
 5 Benign/Likely benign                        47413
 6 Benign/Likely benign; association               1
 7 Benign/Likely benign; drug response             2
 8 Benign/Likely benign; drug response; other      3
 9 Benign/Likely benign; other                     9
10 Benign/Likely benign; other; risk factor        1
# ℹ 82 more rows
# ℹ Use `print(n = ...)` to see more rows
…
